<svg width="14" height="18" viewBox="0 0 14 18" fill="none" xmlns="http://www.w3.org/2000/svg">
<path d="M6.99998 0.666666C4.70248 0.666666 2.83331 2.53583 2.83331 4.83333V7.33333H1.99998C1.55795 7.33333 1.13403 7.50893 0.821468 7.82149C0.508908 8.13405 0.333313 8.55797 0.333313 9V15.6667C0.333313 16.1087 0.508908 16.5326 0.821468 16.8452C1.13403 17.1577 1.55795 17.3333 1.99998 17.3333H12C12.442 17.3333 12.8659 17.1577 13.1785 16.8452C13.4911 16.5326 13.6666 16.1087 13.6666 15.6667V9C13.6666 8.55797 13.4911 8.13405 13.1785 7.82149C12.8659 7.50893 12.442 7.33333 12 7.33333H11.1666V4.83333C11.1666 2.53583 9.29748 0.666666 6.99998 0.666666ZM4.49998 4.83333C4.49998 3.455 5.62165 2.33333 6.99998 2.33333C8.37831 2.33333 9.49998 3.455 9.49998 4.83333V7.33333H4.49998V4.83333ZM7.83331 13.7692V15.6667H6.16665V13.7692C5.8753 13.6023 5.64136 13.3511 5.49567 13.0486C5.34998 12.7462 5.29938 12.4066 5.35055 12.0748C5.40172 11.743 5.55224 11.4345 5.78228 11.1899C6.01232 10.9454 6.31108 10.7763 6.63915 10.705C6.88283 10.6511 7.1355 10.6526 7.37852 10.7094C7.62154 10.7662 7.84872 10.8768 8.0433 11.0331C8.23788 11.1893 8.3949 11.3873 8.50279 11.6123C8.61067 11.8374 8.66667 12.0838 8.66665 12.3333C8.66617 12.6248 8.58889 12.911 8.44259 13.163C8.29629 13.4151 8.08614 13.6242 7.83331 13.7692Z" fill="#838383"/>
</svg>
