<?xml version="1.0" encoding="UTF-8"?><!DOCTYPE svg PUBLIC "-//W3C//DTD SVG 1.1//EN"
        "http://www.w3.org/Graphics/SVG/1.1/DTD/svg11.dtd">
<svg xmlns="http://www.w3.org/2000/svg" xmlns:xlink="http://www.w3.org/1999/xlink" version="1.1" width="24" height="24"
     viewBox="0 0 24 24">
    <path fill="#fff" d="M4 19V7H16V19C16 20.1 15.1 21 14 21H6C4.9 21 4 20.1 4 19M6 9V19H14V9H6M13.5 4H17V6H3V4H6.5L7.5 3H12.5L13.5 4M19 17V15H21V17H19M19 13V7H21V13H19Z"/>
</svg>