// Jest Snapshot v1, https://goo.gl/fbAQLP

exports[`ButtonOrder render test should button order render 1`] = `
<DocumentFragment>
  <button>
    Place an order
  </button>
  <section
    class="container"
  >
    <button
      class="MuiButton-root MuiButton-contained MuiButton-containedError MuiButton-sizeMedium MuiButton-containedSizeMedium MuiButtonBase-root Button css-1sszw6i-MuiButtonBase-root-MuiButton-root"
      tabindex="0"
      type="button"
    >
      Place an Order
      <span
        class="MuiTouchRipple-root css-8je8zh-MuiTouchRipple-root"
      />
    </button>
  </section>
</DocumentFragment>
`;
