{
  "data": [
    {
      "id": 1,
      "name": "Azure",
      "price": 100,
      "image": "https://via.placeholder.com/300/F0FFFF/000000?text=Azure",
      "vendorCode": "234525",
      "color": "#F0FFFF",
      "isFavorite": false
    },
    {
      "id": 2,
      "name": "BlueViolet",
      "price": 200,
      "image": "https://via.placeholder.com/300/8A2BE2/ffffff?text=BlueViolet",
      "vendorCode": "456954",
      "color": "#8A2BE2",
      "isFavorite": false
    },
    {
      "id": 3,
      "name": "Brown",
      "price": 300,
      "image": "https://via.placeholder.com/300/A52A2A/ffffff?text=Brown",
      "vendorCode": "897355",
      "color": "#A52A2A",
      "isFavorite": false
    },
    {
      "id": 4,
      "name": "Coral",
      "price": 400,
      "image": "https://via.placeholder.com/300/FF7F50/ffffff?text=Coral",
      "vendorCode": "544686",
      "color": "#FF7F50",
      "isFavorite": false
    },
    {
      "id": 5,
      "name": "Cornsilk",
      "price": 500,
      "image": "https://via.placeholder.com/300/FFF8DC/000000?text=Cornsilk",
      "vendorCode": "324498",
      "color": "#FFF8DC",
      "isFavorite": false
    },
    {
      "id": 6,
      "name": "Crimson",
      "price": 600,
      "image": "https://via.placeholder.com/300/DC143C/ffffff?text=Crimson",
      "vendorCode": "863313",
      "color": "#DC143C",
      "isFavorite": false
    },
    {
      "id": 7,
      "name": "DarkMagenta",
      "price": 700,
      "image": "https://via.placeholder.com/300/8B008B/ffffff?text=DarkMagenta",
      "vendorCode": "122868",
      "color": "#8B008B",
      "isFavorite": false
    },
    {
      "id": 8,
      "name": "DodgerBlue",
      "price": 800,
      "image": "https://via.placeholder.com/300/1E90FF/ffffff?text=DodgerBlue",
      "vendorCode": "891964",
      "color": "#1E90FF",
      "isFavorite": false
    },
    {
      "id": 9,
      "name": "Green",
      "price": 900,
      "image": "https://via.placeholder.com/300/008000/ffffff?text=Green",
      "vendorCode": "336445",
      "color": "#008000",
      "isFavorite": false
    },
    {
      "id": 10,
      "name": "Navy",
      "price": 1000,
      "image": "https://via.placeholder.com/300/000080/ffffff?text=Navy",
      "vendorCode": "236364",
      "color": "#000080",
      "isFavorite": false
    }
  ]
}
